<?xml version="1.0" standalone="no"?>
<!DOCTYPE svg PUBLIC "-//W3C//DTD SVG 20010904//EN"
 "http://www.w3.org/TR/2001/REC-SVG-20010904/DTD/svg10.dtd">
<svg version="1.0" xmlns="http://www.w3.org/2000/svg"
 width="64.000000pt" height="64.000000pt" viewBox="0 0 64.000000 64.000000"
 preserveAspectRatio="xMidYMid meet">
<metadata>
Created by potrace 1.13, written by Peter Selinger 2001-2015
</metadata>
<g transform="translate(0.000000,64.000000) scale(0.100000,-0.100000)"
fill="#000000" stroke="none">
<path d="M25 615 l-25 -24 0 -271 0 -271 25 -24 c24 -25 24 -25 239 -25 l216
0 80 160 80 160 -80 160 -80 160 -216 0 c-215 0 -215 0 -239 -25z m175 -186
c0 -7 -7 -17 -17 -24 -15 -11 -14 -18 9 -91 l24 -79 34 103 c19 56 38 101 44
99 5 -2 23 -44 41 -95 17 -51 34 -94 37 -97 3 -3 15 29 27 71 18 62 20 79 9
85 -7 5 -16 9 -20 9 -5 0 -8 7 -8 15 0 12 13 15 55 15 58 0 72 -14 36 -37 -12
-8 -33 -54 -57 -128 -47 -142 -58 -146 -98 -35 -15 44 -31 82 -35 84 -4 3 -20
-33 -36 -80 -41 -118 -53 -114 -95 32 -22 75 -40 120 -52 127 -36 23 -21 37
42 37 38 0 60 -4 60 -11z"/>
</g>
</svg>
